EESchema Schematic File Version 2
LIBS:power
LIBS:device
LIBS:transistors
LIBS:conn
LIBS:linear
LIBS:regul
LIBS:74xx
LIBS:cmos4000
LIBS:adc-dac
LIBS:memory
LIBS:xilinx
LIBS:microcontrollers
LIBS:dsp
LIBS:microchip
LIBS:analog_switches
LIBS:motorola
LIBS:texas
LIBS:intel
LIBS:audio
LIBS:interface
LIBS:digital-audio
LIBS:philips
LIBS:display
LIBS:cypress
LIBS:siliconi
LIBS:opto
LIBS:atmel
LIBS:contrib
LIBS:valves
LIBS:tvsender-cache
EELAYER 25 0
EELAYER END
$Descr A4 11693 8268
encoding utf-8
Sheet 1 1
Title ""
Date ""
Rev ""
Comp ""
Comment1 ""
Comment2 ""
Comment3 ""
Comment4 ""
$EndDescr
$Comp
L BC547 Q2
U 1 1 59750CD2
P 5350 1850
F 0 "Q2" H 5050 2150 50  0000 L CNN
F 1 "BC547" H 5050 2050 50  0000 L CNN
F 2 "TO_SOT_Packages_THT:TO-92_Inline_Wide" H 4950 2750 50  0000 L CIN
F 3 "" H 5350 1850 50  0000 L CNN
	1    5350 1850
	1    0    0    -1  
$EndComp
$Comp
L R R5
U 1 1 597619D7
P 4500 1350
F 0 "R5" H 4550 1350 50  0000 L CNN
F 1 "100k" V 4500 1250 50  0000 L CNN
F 2 "Resistors_THT:R_Axial_DIN0207_L6.3mm_D2.5mm_P10.16mm_Horizontal" V 4430 1350 50  0001 C CNN
F 3 "" H 4500 1350 50  0000 C CNN
	1    4500 1350
	1    0    0    -1  
$EndComp
$Comp
L L L2
U 1 1 59761A29
P 5450 1350
F 0 "L2" H 5503 1396 50  0000 L CNN
F 1 "220nH" H 5503 1305 50  0000 L CNN
F 2 "Resistors_THT:R_Axial_DIN0207_L6.3mm_D2.5mm_P10.16mm_Horizontal" H 5450 1350 50  0001 C CNN
F 3 "" H 5450 1350 50  0000 C CNN
	1    5450 1350
	1    0    0    -1  
$EndComp
$Comp
L C C11
U 1 1 59761A63
P 5200 1350
F 0 "C11" H 4950 1350 50  0000 L CNN
F 1 "33pF" H 4950 1450 50  0000 L CNN
F 2 "Capacitors_THT:C_Disc_D5.0mm_W2.5mm_P5.00mm" H 5238 1200 50  0001 C CNN
F 3 "" H 5200 1350 50  0000 C CNN
	1    5200 1350
	1    0    0    -1  
$EndComp
$Comp
L C C8
U 1 1 59761B43
P 4200 1850
F 0 "C8" H 4250 1950 50  0000 L CNN
F 1 "10nF" H 4250 1750 50  0000 L CNN
F 2 "Capacitors_THT:C_Disc_D5.0mm_W2.5mm_P5.00mm" H 4238 1700 50  0001 C CNN
F 3 "" H 4200 1850 50  0000 C CNN
	1    4200 1850
	1    0    0    -1  
$EndComp
$Comp
L R R6
U 1 1 59761C60
P 5450 2350
F 0 "R6" H 5500 2500 50  0000 L CNN
F 1 "1k" V 5450 2300 50  0000 L CNN
F 2 "Resistors_THT:R_Axial_DIN0207_L6.3mm_D2.5mm_P10.16mm_Horizontal" V 5380 2350 50  0001 C CNN
F 3 "" H 5450 2350 50  0000 C CNN
	1    5450 2350
	1    0    0    -1  
$EndComp
$Comp
L C C10
U 1 1 59761CFA
P 5150 2350
F 0 "C10" H 5100 2650 50  0000 L CNN
F 1 "100pF" H 5050 2550 50  0000 L CNN
F 2 "Capacitors_THT:C_Disc_D5.0mm_W2.5mm_P5.00mm" H 5188 2200 50  0001 C CNN
F 3 "" H 5150 2350 50  0000 C CNN
	1    5150 2350
	1    0    0    -1  
$EndComp
$Comp
L C C9
U 1 1 59761D5E
P 4850 2200
F 0 "C9" V 4598 2200 50  0000 C CNN
F 1 "100pF" V 4689 2200 50  0000 C CNN
F 2 "Capacitors_THT:C_Disc_D5.0mm_W2.5mm_P5.00mm" H 4888 2050 50  0001 C CNN
F 3 "" H 4850 2200 50  0000 C CNN
	1    4850 2200
	0    1    1    0   
$EndComp
$Comp
L Crystal Y1
U 1 1 59761DD5
P 4500 2350
F 0 "Y1" V 4454 2481 50  0000 L CNN
F 1 "16MHz" V 4545 2481 50  0000 L CNN
F 2 "Crystals:Crystal_HC49-U_Vertical" H 4500 2350 50  0001 C CNN
F 3 "" H 4500 2350 50  0000 C CNN
	1    4500 2350
	0    1    1    0   
$EndComp
$Comp
L C C13
U 1 1 597625C0
P 6500 1500
F 0 "C13" V 6750 1450 50  0000 L CNN
F 1 "10pF" V 6650 1400 50  0000 L CNN
F 2 "Capacitors_THT:C_Disc_D5.0mm_W2.5mm_P5.00mm" H 6538 1350 50  0001 C CNN
F 3 "" H 6500 1500 50  0000 C CNN
	1    6500 1500
	0    -1   -1   0   
$EndComp
$Comp
L BC547 Q3
U 1 1 59762671
P 7000 1850
F 0 "Q3" H 7191 1941 50  0000 L CNN
F 1 "BC547" H 7191 1850 50  0000 L CNN
F 2 "TO_SOT_Packages_THT:TO-92_Inline_Wide" H 6750 2750 50  0000 L CIN
F 3 "" H 7000 1850 50  0000 L CNN
	1    7000 1850
	1    0    0    -1  
$EndComp
$Comp
L R R7
U 1 1 59762769
P 6500 1850
F 0 "R7" V 6400 1800 50  0000 L CNN
F 1 "10k" V 6500 1800 50  0000 L CNN
F 2 "Resistors_THT:R_Axial_DIN0207_L6.3mm_D2.5mm_P10.16mm_Horizontal" V 6430 1850 50  0001 C CNN
F 3 "" H 6500 1850 50  0000 C CNN
	1    6500 1850
	0    1    1    0   
$EndComp
$Comp
L POT RV2
U 1 1 597627EB
P 6100 1850
F 0 "RV2" H 6300 1750 50  0000 R CNN
F 1 "10k" V 6100 1900 50  0000 R CNN
F 2 "Potentiometers:Potentiometer_Trimmer_VishaySpectrol_Econtrim-Type36k" H 6100 1850 50  0001 C CNN
F 3 "" H 6100 1850 50  0000 C CNN
	1    6100 1850
	1    0    0    -1  
$EndComp
$Comp
L L L3
U 1 1 59762949
P 7100 1350
F 0 "L3" H 7153 1396 50  0000 L CNN
F 1 "220nH" H 7153 1305 50  0000 L CNN
F 2 "Resistors_THT:R_Axial_DIN0207_L6.3mm_D2.5mm_P10.16mm_Horizontal" H 7100 1350 50  0001 C CNN
F 3 "" H 7100 1350 50  0000 C CNN
	1    7100 1350
	1    0    0    -1  
$EndComp
$Comp
L R R8
U 1 1 59762A24
P 7100 2350
F 0 "R8" H 7170 2396 50  0000 L CNN
F 1 "680" H 7170 2305 50  0000 L CNN
F 2 "Resistors_THT:R_Axial_DIN0207_L6.3mm_D2.5mm_P10.16mm_Horizontal" V 7030 2350 50  0001 C CNN
F 3 "" H 7100 2350 50  0000 C CNN
	1    7100 2350
	1    0    0    -1  
$EndComp
$Comp
L C C14
U 1 1 59762A6C
P 6800 2350
F 0 "C14" H 6750 2650 50  0000 L CNN
F 1 "180pF" H 6750 2550 50  0000 L CNN
F 2 "Capacitors_THT:C_Disc_D5.0mm_W2.5mm_P5.00mm" H 6838 2200 50  0001 C CNN
F 3 "" H 6800 2350 50  0000 C CNN
	1    6800 2350
	1    0    0    -1  
$EndComp
$Comp
L C C16
U 1 1 59762C44
P 7600 2200
F 0 "C16" V 7348 2200 50  0000 C CNN
F 1 "1uF" V 7439 2200 50  0000 C CNN
F 2 "Capacitors_THT:C_Disc_D7.5mm_W5.0mm_P5.00mm" H 7638 2050 50  0001 C CNN
F 3 "" H 7600 2200 50  0000 C CNN
	1    7600 2200
	0    1    1    0   
$EndComp
$Comp
L L L5
U 1 1 59762CB4
P 8100 2200
F 0 "L5" V 8290 2200 50  0000 C CNN
F 1 "10uH" V 8199 2200 50  0000 C CNN
F 2 "Resistors_THT:R_Axial_DIN0207_L6.3mm_D2.5mm_P10.16mm_Horizontal" H 8100 2200 50  0001 C CNN
F 3 "" H 8100 2200 50  0000 C CNN
	1    8100 2200
	0    -1   -1   0   
$EndComp
$Comp
L POT RV3
U 1 1 59762D51
P 8600 2200
F 0 "RV3" H 8531 2154 50  0000 R CNN
F 1 "1k" H 8531 2245 50  0000 R CNN
F 2 "Potentiometers:Potentiometer_Trimmer_VishaySpectrol_Econtrim-Type36k" H 8600 2200 50  0001 C CNN
F 3 "" H 8600 2200 50  0000 C CNN
	1    8600 2200
	-1   0    0    1   
$EndComp
$Comp
L C C15
U 1 1 59762EC0
P 7600 1650
F 0 "C15" V 7348 1650 50  0000 C CNN
F 1 "56pF" V 7439 1650 50  0000 C CNN
F 2 "Capacitors_THT:C_Disc_D5.0mm_W2.5mm_P5.00mm" H 7638 1500 50  0001 C CNN
F 3 "" H 7600 1650 50  0000 C CNN
	1    7600 1650
	0    1    1    0   
$EndComp
$Comp
L C C18
U 1 1 597632EF
P 7850 1800
F 0 "C18" H 7965 1846 50  0000 L CNN
F 1 "120pF" H 7965 1755 50  0000 L CNN
F 2 "Capacitors_THT:C_Disc_D5.0mm_W2.5mm_P5.00mm" H 7888 1650 50  0001 C CNN
F 3 "" H 7850 1800 50  0000 C CNN
	1    7850 1800
	1    0    0    -1  
$EndComp
$Comp
L L L4
U 1 1 597633A1
P 8100 1650
F 0 "L4" V 8290 1650 50  0000 C CNN
F 1 "680nH" V 8199 1650 50  0000 C CNN
F 2 "Resistors_THT:R_Axial_DIN0207_L6.3mm_D2.5mm_P10.16mm_Horizontal" H 8100 1650 50  0001 C CNN
F 3 "" H 8100 1650 50  0000 C CNN
	1    8100 1650
	0    -1   -1   0   
$EndComp
$Comp
L C_Variable C19
U 1 1 597637C1
P 8350 1800
F 0 "C19" H 8200 1900 50  0000 L CNN
F 1 "22pF" H 8050 1800 50  0000 L CNN
F 2 "Capacitors_THT:C_Trimm_3_Pins" H 8350 1800 50  0001 C CNN
F 3 "" H 8350 1800 50  0000 C CNN
	1    8350 1800
	-1   0    0    1   
$EndComp
$Comp
L CP C7
U 1 1 59764F89
P 3850 1850
F 0 "C7" H 3900 1950 50  0000 L CNN
F 1 "100uF" H 3900 1750 50  0000 L CNN
F 2 "Capacitors_THT:CP_Radial_D5.0mm_P2.50mm" H 3888 1700 50  0001 C CNN
F 3 "" H 3850 1850 50  0000 C CNN
	1    3850 1850
	1    0    0    -1  
$EndComp
$Comp
L BC547 Q1
U 1 1 59766058
P 2550 1850
F 0 "Q1" H 2741 1941 50  0000 L CNN
F 1 "BC547" H 2350 2050 50  0000 L CNN
F 2 "TO_SOT_Packages_THT:TO-92_Inline_Wide" H 2350 2750 50  0000 L CIN
F 3 "" H 2550 1850 50  0000 L CNN
	1    2550 1850
	1    0    0    -1  
$EndComp
$Comp
L C C4
U 1 1 5976711E
P 2950 1850
F 0 "C4" H 3065 1896 50  0000 L CNN
F 1 "82pF" H 3065 1805 50  0000 L CNN
F 2 "Capacitors_THT:C_Disc_D5.0mm_W2.5mm_P5.00mm" H 2988 1700 50  0001 C CNN
F 3 "" H 2950 1850 50  0000 C CNN
	1    2950 1850
	1    0    0    -1  
$EndComp
$Comp
L R R3
U 1 1 59767190
P 2050 2350
F 0 "R3" H 2120 2396 50  0000 L CNN
F 1 "68k" H 2120 2305 50  0000 L CNN
F 2 "Resistors_THT:R_Axial_DIN0207_L6.3mm_D2.5mm_P10.16mm_Horizontal" V 1980 2350 50  0001 C CNN
F 3 "" H 2050 2350 50  0000 C CNN
	1    2050 2350
	1    0    0    -1  
$EndComp
$Comp
L C C2
U 1 1 59767226
P 2350 2350
F 0 "C2" H 2400 2550 50  0000 L CNN
F 1 "22nF" H 2400 2450 50  0000 L CNN
F 2 "Capacitors_THT:C_Disc_D5.0mm_W2.5mm_P5.00mm" H 2388 2200 50  0001 C CNN
F 3 "" H 2350 2350 50  0000 C CNN
	1    2350 2350
	1    0    0    -1  
$EndComp
$Comp
L C C1
U 1 1 597672EC
P 1900 1850
F 0 "C1" V 1648 1850 50  0000 C CNN
F 1 "22nF" V 1739 1850 50  0000 C CNN
F 2 "Capacitors_THT:C_Disc_D5.0mm_W2.5mm_P5.00mm" H 1938 1700 50  0001 C CNN
F 3 "" H 1900 1850 50  0000 C CNN
	1    1900 1850
	0    1    1    0   
$EndComp
$Comp
L R R2
U 1 1 597675DD
P 2050 1350
F 0 "R2" H 2120 1396 50  0000 L CNN
F 1 "470k" H 2120 1305 50  0000 L CNN
F 2 "Resistors_THT:R_Axial_DIN0207_L6.3mm_D2.5mm_P10.16mm_Horizontal" V 1980 1350 50  0001 C CNN
F 3 "" H 2050 1350 50  0000 C CNN
	1    2050 1350
	1    0    0    -1  
$EndComp
$Comp
L L L1
U 1 1 59767665
P 2650 1350
F 0 "L1" H 2800 1250 50  0000 R CNN
F 1 "22uH" H 2900 1350 50  0000 R CNN
F 2 "Resistors_THT:R_Axial_DIN0207_L6.3mm_D2.5mm_P10.16mm_Horizontal" H 2650 1350 50  0001 C CNN
F 3 "" H 2650 1350 50  0000 C CNN
	1    2650 1350
	-1   0    0    1   
$EndComp
$Comp
L C_Variable C3
U 1 1 5976778D
P 2950 1350
F 0 "C3" H 3065 1396 50  0000 L CNN
F 1 "22pF" H 3065 1305 50  0000 L CNN
F 2 "Capacitors_THT:C_Trimm_3_Pins" H 2950 1350 50  0001 C CNN
F 3 "" H 2950 1350 50  0000 C CNN
	1    2950 1350
	1    0    0    -1  
$EndComp
$Comp
L R R4
U 1 1 59767C72
P 2650 2350
F 0 "R4" H 2720 2396 50  0000 L CNN
F 1 "2k2" H 2720 2305 50  0000 L CNN
F 2 "Resistors_THT:R_Axial_DIN0207_L6.3mm_D2.5mm_P10.16mm_Horizontal" V 2580 2350 50  0001 C CNN
F 3 "" H 2650 2350 50  0000 C CNN
	1    2650 2350
	1    0    0    -1  
$EndComp
$Comp
L R R1
U 1 1 59768274
P 1750 2200
F 0 "R1" H 1820 2246 50  0000 L CNN
F 1 "100" H 1820 2155 50  0000 L CNN
F 2 "Resistors_THT:R_Axial_DIN0207_L6.3mm_D2.5mm_P10.16mm_Horizontal" V 1680 2200 50  0001 C CNN
F 3 "" H 1750 2200 50  0000 C CNN
	1    1750 2200
	1    0    0    -1  
$EndComp
$Comp
L POT RV1
U 1 1 5976864E
P 1500 2350
F 0 "RV1" H 1430 2396 50  0000 R CNN
F 1 "1k" H 1430 2305 50  0000 R CNN
F 2 "Potentiometers:Potentiometer_Trimmer_VishaySpectrol_Econtrim-Type36k" H 1500 2350 50  0001 C CNN
F 3 "" H 1500 2350 50  0000 C CNN
	1    1500 2350
	1    0    0    -1  
$EndComp
$Comp
L C C6
U 1 1 59768CB3
P 3450 1850
F 0 "C6" H 3500 1950 50  0000 L CNN
F 1 "10nF" H 3500 1750 50  0000 L CNN
F 2 "Capacitors_THT:C_Disc_D5.0mm_W2.5mm_P5.00mm" H 3488 1700 50  0001 C CNN
F 3 "" H 3450 1850 50  0000 C CNN
	1    3450 1850
	1    0    0    -1  
$EndComp
$Comp
L C C5
U 1 1 59769296
P 3100 2300
F 0 "C5" V 2848 2300 50  0000 C CNN
F 1 "10pF" V 2939 2300 50  0000 C CNN
F 2 "Capacitors_THT:C_Disc_D5.0mm_W2.5mm_P5.00mm" H 3138 2150 50  0001 C CNN
F 3 "" H 3100 2300 50  0000 C CNN
	1    3100 2300
	0    1    1    0   
$EndComp
$Comp
L GND #PWR01
U 1 1 5976DE47
P 10450 1400
F 0 "#PWR01" H 10450 1150 50  0001 C CNN
F 1 "GND" H 10455 1227 50  0000 C CNN
F 2 "" H 10450 1400 50  0000 C CNN
F 3 "" H 10450 1400 50  0000 C CNN
	1    10450 1400
	1    0    0    -1  
$EndComp
$Comp
L GND #PWR02
U 1 1 5976E057
P 9300 1600
F 0 "#PWR02" H 9300 1350 50  0001 C CNN
F 1 "GND" H 9305 1427 50  0000 C CNN
F 2 "" H 9300 1600 50  0000 C CNN
F 3 "" H 9300 1600 50  0000 C CNN
	1    9300 1600
	1    0    0    -1  
$EndComp
$Comp
L C C20
U 1 1 59772686
P 8950 2050
F 0 "C20" V 9200 2050 50  0000 C CNN
F 1 "1uF" V 9100 2050 50  0000 C CNN
F 2 "Capacitors_THT:C_Disc_D7.5mm_W5.0mm_P5.00mm" H 8988 1900 50  0001 C CNN
F 3 "" H 8950 2050 50  0000 C CNN
	1    8950 2050
	0    1    1    0   
$EndComp
$Comp
L C C12
U 1 1 59765DA6
P 5800 1850
F 0 "C12" H 5850 1950 50  0000 L CNN
F 1 "10nF" H 5850 1750 50  0000 L CNN
F 2 "Capacitors_THT:C_Disc_D5.0mm_W2.5mm_P5.00mm" H 5838 1700 50  0001 C CNN
F 3 "" H 5800 1850 50  0000 C CNN
	1    5800 1850
	1    0    0    -1  
$EndComp
Wire Wire Line
	5000 2200 5450 2200
Connection ~ 5150 2200
Wire Wire Line
	5450 2200 5450 2050
Wire Wire Line
	4500 2200 4700 2200
Wire Wire Line
	4500 1500 4500 2200
Wire Wire Line
	4500 1850 5150 1850
Wire Wire Line
	4500 1100 4500 1200
Wire Wire Line
	2050 1100 9300 1100
Wire Wire Line
	5450 1100 5450 1200
Wire Wire Line
	5200 1200 5200 1100
Connection ~ 5200 1100
Connection ~ 4500 1850
Wire Wire Line
	5450 1500 5450 1650
Connection ~ 5150 2500
Connection ~ 5450 1500
Connection ~ 5450 1100
Connection ~ 5450 2500
Wire Wire Line
	7100 1100 7100 1200
Wire Wire Line
	7100 1650 7100 1500
Wire Wire Line
	6800 2200 7450 2200
Wire Wire Line
	7100 2200 7100 2050
Connection ~ 6800 2500
Connection ~ 7100 2500
Connection ~ 7100 2200
Wire Wire Line
	7750 2200 7950 2200
Wire Wire Line
	7450 1650 7100 1650
Wire Wire Line
	7750 1650 7950 1650
Wire Wire Line
	7850 2500 7850 1950
Connection ~ 7850 2500
Connection ~ 7850 1650
Wire Wire Line
	8350 2500 8350 1950
Connection ~ 8350 2500
Wire Wire Line
	8250 2200 8450 2200
Wire Wire Line
	8350 1000 8350 1650
Wire Wire Line
	8350 1650 8250 1650
Wire Wire Line
	8600 2350 8600 2600
Connection ~ 8600 2500
Wire Wire Line
	4200 2500 4200 2000
Connection ~ 4500 2500
Wire Wire Line
	4200 1100 4200 1700
Connection ~ 4500 1100
Wire Wire Line
	3850 1700 3850 1100
Connection ~ 4200 1100
Wire Wire Line
	3850 2500 3850 2000
Connection ~ 4200 2500
Wire Wire Line
	2050 1850 2350 1850
Wire Wire Line
	2050 1500 2050 2200
Wire Wire Line
	2350 1850 2350 2200
Wire Wire Line
	2650 1650 2950 1650
Wire Wire Line
	2950 1500 2950 1700
Connection ~ 2950 1650
Wire Wire Line
	2650 1650 2650 1500
Wire Wire Line
	2650 1200 2650 1100
Connection ~ 3850 1100
Wire Wire Line
	2950 1200 2950 1100
Connection ~ 2950 1100
Wire Wire Line
	2050 1200 2050 1100
Connection ~ 2650 1100
Connection ~ 2350 2500
Connection ~ 3850 2500
Connection ~ 2650 2500
Wire Wire Line
	1750 1850 1750 2050
Connection ~ 2050 1850
Connection ~ 2050 2500
Wire Wire Line
	1650 2350 1750 2350
Wire Wire Line
	1200 2200 1500 2200
Wire Wire Line
	3450 1700 3450 1100
Connection ~ 3450 1100
Wire Wire Line
	3450 2500 3450 2000
Connection ~ 3450 2500
Wire Wire Line
	2650 2200 2650 2050
Wire Wire Line
	2650 2050 2950 2050
Wire Wire Line
	2950 2000 2950 2300
Connection ~ 2950 2050
Wire Wire Line
	3250 2300 3250 2650
Wire Wire Line
	3250 2650 6650 2650
Connection ~ 7100 1100
Wire Wire Line
	8800 2050 8600 2050
Wire Wire Line
	9100 2050 9300 2050
Wire Wire Line
	5800 1700 5800 1100
Connection ~ 5800 1100
Wire Wire Line
	5800 2500 5800 2000
Connection ~ 5800 2500
Wire Wire Line
	6100 2500 6100 2000
Connection ~ 6100 2500
Wire Wire Line
	6100 1700 6100 1100
Connection ~ 6100 1100
Wire Wire Line
	6250 1850 6350 1850
Wire Wire Line
	5200 1500 6350 1500
Wire Wire Line
	6650 2650 6650 1500
Connection ~ 6650 1850
Wire Wire Line
	6650 1850 6800 1850
$Comp
L PWR_FLAG #FLG03
U 1 1 5976AC0B
P 10450 1300
F 0 "#FLG03" H 10450 1395 50  0001 C CNN
F 1 "PWR_FLAG" H 10450 1524 50  0000 C CNN
F 2 "" H 10450 1300 50  0000 C CNN
F 3 "" H 10450 1300 50  0000 C CNN
	1    10450 1300
	1    0    0    -1  
$EndComp
$Comp
L C C21
U 1 1 59778D27
P 9050 1350
F 0 "C21" H 9075 1450 50  0000 L CNN
F 1 "100nF" H 9075 1250 50  0000 L CNN
F 2 "Capacitors_THT:C_Disc_D7.0mm_W2.5mm_P5.00mm" H 9088 1200 50  0001 C CNN
F 3 "" H 9050 1350 50  0001 C CNN
	1    9050 1350
	1    0    0    -1  
$EndComp
Wire Wire Line
	9050 1200 9050 1100
Connection ~ 9050 1100
$Comp
L C C17
U 1 1 59807E40
P 7600 2400
F 0 "C17" V 7750 2250 50  0000 C CNN
F 1 "1uF" V 7750 2400 50  0000 C CNN
F 2 "Capacitors_THT:C_Disc_D7.5mm_W5.0mm_P5.00mm" H 7638 2250 50  0001 C CNN
F 3 "" H 7600 2400 50  0000 C CNN
	1    7600 2400
	0    1    1    0   
$EndComp
Wire Wire Line
	7450 2200 7450 2400
Wire Wire Line
	7750 2400 7750 2200
$Comp
L BARREL_JACK J1
U 1 1 5980B512
P 9600 1200
F 0 "J1" H 9600 1395 50  0000 C CNN
F 1 "BARREL_JACK" H 9500 1050 50  0000 C CNN
F 2 "Connectors:BARREL_JACK" H 9600 1200 50  0001 C CNN
F 3 "" H 9600 1200 50  0001 C CNN
	1    9600 1200
	-1   0    0    -1  
$EndComp
Wire Wire Line
	8450 1500 9300 1500
Wire Wire Line
	9300 1200 9300 1600
Connection ~ 9300 1500
Connection ~ 9300 1300
Wire Wire Line
	1500 2500 9100 2500
Wire Wire Line
	10450 1400 10450 1300
$Comp
L CONN_01X04 J2
U 1 1 5980E76E
P 9500 2100
F 0 "J2" H 9500 2350 50  0000 C CNN
F 1 "AV_INPUT" V 9600 2100 50  0000 C CNN
F 2 "Connectors:Double_Cinch_Socket" H 9500 2100 50  0001 C CNN
F 3 "" H 9500 2100 50  0001 C CNN
	1    9500 2100
	1    0    0    -1  
$EndComp
Wire Wire Line
	9300 1950 9200 1950
Wire Wire Line
	9200 1950 9200 2150
Wire Wire Line
	9100 2150 9300 2150
Wire Wire Line
	9300 2250 9200 2250
Wire Wire Line
	9200 2250 9200 2800
Wire Wire Line
	9200 2800 1200 2800
Wire Wire Line
	1200 2800 1200 2200
Wire Wire Line
	9100 2500 9100 2150
Connection ~ 9200 2150
$Comp
L C C22
U 1 1 5980F649
P 8950 1850
F 0 "C22" V 8698 1850 50  0000 C CNN
F 1 "1uF" V 8789 1850 50  0000 C CNN
F 2 "Capacitors_THT:C_Disc_D7.5mm_W5.0mm_P5.00mm" H 8988 1700 50  0001 C CNN
F 3 "" H 8950 1850 50  0000 C CNN
	1    8950 1850
	0    1    1    0   
$EndComp
Wire Wire Line
	8800 1850 8800 2050
Wire Wire Line
	9100 1850 9100 2050
Text Notes 8200 2400 2    39   ~ 0
Brown\nBlack\nBlack
Text Notes 6950 1450 0    39   ~ 0
red\nred\nsilver
Text Notes 5300 1450 0    39   ~ 0
red\nred\nsilver
Text Notes 2650 1450 0    39   ~ 0
red\nred\nblack
Text Notes 8050 1400 0    39   ~ 0
blue\ngrey\nsilver
$Comp
L GND #PWR04
U 1 1 598119AD
P 8600 2600
F 0 "#PWR04" H 8600 2350 50  0001 C CNN
F 1 "GND" H 8600 2450 50  0000 C CNN
F 2 "" H 8600 2600 50  0001 C CNN
F 3 "" H 8600 2600 50  0001 C CNN
	1    8600 2600
	1    0    0    -1  
$EndComp
$Comp
L Antenna_Shield AE1
U 1 1 59812B43
P 8350 800
F 0 "AE1" H 8550 800 50  0000 R CNN
F 1 "Antenna_Shield" H 8950 900 50  0000 R CNN
F 2 "Connectors:Single_Cinch_Connector" H 8350 900 50  0001 C CNN
F 3 "" H 8350 900 50  0001 C CNN
	1    8350 800 
	1    0    0    -1  
$EndComp
Connection ~ 9050 1500
Wire Wire Line
	8450 1000 8450 1500
$EndSCHEMATC
